Assignment 5 - DESeq2
…
3. Annotating results to construct a labeled volcano plot

Using the results generated by DESeq2, convert it to a tibble and add one additional column that denotes whether a gene is either: 1. Upregulated and significant at a given padj threshold, 2.Downregulated and significant at a given padj threshold, or 3. Not significant at a given padj threshold. Have your function take the DESeq2 results as well as a user-defined threshold for padj and set it at .10.

## # A tibble: 55,416 x 8
##    genes          volc_plot_status log2FoldChange      padj baseMean lfcSE  stat
##    <chr>          <chr>                     <dbl>     <dbl>    <dbl> <dbl> <dbl>
##  1 ENSMUSG000000~ Down                      -9.86 1.26e-298   11732. 0.265 -37.2
##  2 ENSMUSG000000~ Up                         6.18 1.11e-252    3547. 0.181  34.2
##  3 ENSMUSG000000~ Up                         6.06 1.38e-201    2360. 0.198  30.6
##  4 ENSMUSG000000~ Down                      -5.37 2.11e-196    3274. 0.178 -30.2
##  5 ENSMUSG000000~ Down                      -6.77 1.52e-194   25698. 0.226 -30.0
##  6 ENSMUSG000000~ Up                         5.30 1.81e-185    5568. 0.181  29.3
##  7 ENSMUSG000000~ Up                         4.55 2.21e-167   24756. 0.163  27.9
##  8 ENSMUSG000000~ Down                      -5.17 6.25e-164    2653. 0.187 -27.6
##  9 ENSMUSG000000~ Up                         4.40 6.91e-159   11343. 0.162  27.1
## 10 ENSMUSG000000~ Down                      -4.07 2.13e-150    6398. 0.154 -26.4
## # ... with 55,406 more rows, and 1 more variable: pvalue <dbl>
…
8. Running fgsea

Perform a GSEA using a ranked list log2FoldChange values for all genes discovered in the DESeq2 results against the C2 Canonical Pathways gene set collection. Remember to convert the gene identifiers in our results to the appropriate matching format found in the C2 gene sets. fgsea expects a named vector of gene level statistics and the gene sets in the form of a named list. As recommended, please set the minSize and maxSize parameters to 15 and 500, respectively. Otherwise, run fgsea using default parameters and the fgsea() function.

## # A tibble: 1,981 x 8
##    pathway                  pval     padj log2err     ES   NES  size leadingEdge
##    <chr>                   <dbl>    <dbl>   <dbl>  <dbl> <dbl> <int> <list>     
##  1 REACTOME_CELL_CYCLE~ 1.18e-22 2.35e-19   1.23  -0.606 -2.47   269 <chr [71]> 
##  2 REACTOME_MITOTIC_SP~ 3.70e-19 3.66e-16   1.13  -0.723 -2.64   109 <chr [33]> 
##  3 REACTOME_RESOLUTION~ 4.12e-18 2.72e-15   1.10  -0.695 -2.55   119 <chr [37]> 
##  4 REACTOME_MITOTIC_PR~ 1.09e-17 5.41e-15   1.09  -0.615 -2.40   195 <chr [63]> 
##  5 REACTOME_THE_CITRIC~ 1.62e-16 6.44e-14   1.05   0.601  2.48   169 <chr [136]>
##  6 REACTOME_MITOTIC_ME~ 1.54e-15 5.09e-13   1.02  -0.572 -2.28   225 <chr [42]> 
##  7 WP_RETINOBLASTOMA_G~ 7.53e-15 2.13e-12   0.987 -0.721 -2.54    85 <chr [50]> 
##  8 REACTOME_RHO_GTPASE~ 5.08e-14 1.26e-11   0.965 -0.633 -2.36   132 <chr [34]> 
##  9 PID_PLK1_PATHWAY     7.00e-14 1.54e-11   0.955 -0.825 -2.54    43 <chr [20]> 
## 10 REACTOME_RESPIRATOR~ 1.16e-13 2.30e-11   0.944  0.661  2.49   101 <chr [77]> 
## # ... with 1,971 more rows
…
